1. git clone

2. git commit // client 

3. git push // client -> server

4. git pull

git add 

git status

vscode gui




SERVER: CODE BASE 1  ----> CODE BASE 2

BOLD-client: CODE BASE 1   ---->  CODE BASE 2 

BAT: CODE BASE 1 ----> CODE BASE 2